(['E:\\_MASTER\\Projects\\py exe\\DSAI_reExcel.py'],
 ['E:\\_MASTER\\Projects\\py exe'],
 [],
 ['C:\\Users\\TUF\\AppData\\Local\\Programs\\Python\\Python311\\Lib\\site-packages\\_pyinstaller_hooks_contrib\\hooks\\stdhooks',
  'C:\\Users\\TUF\\AppData\\Local\\Programs\\Python\\Python311\\Lib\\site-packages\\_pyinstaller_hooks_contrib\\hooks'],
 {},
 [],
 [],
 False,
 {},
 [],
 [],
 '3.11.0 (main, Oct 24 2022, 18:26:48) [MSC v.1933 64 bit (AMD64)]',
 [('pyi_rth_inspect',
   'C:\\Users\\TUF\\AppData\\Local\\Programs\\Python\\Python311\\Lib\\site-packages\\PyInstaller\\hooks\\rthooks\\pyi_rth_inspect.py',
   'PYSOURCE'),
  ('pyi_rth_pywintypes',
   'C:\\Users\\TUF\\AppData\\Local\\Programs\\Python\\Python311\\Lib\\site-packages\\_pyinstaller_hooks_contrib\\hooks\\rthooks\\pyi_rth_pywintypes.py',
   'PYSOURCE'),
  ('pyi_rth_pythoncom',
   'C:\\Users\\TUF\\AppData\\Local\\Programs\\Python\\Python311\\Lib\\site-packages\\_pyinstaller_hooks_contrib\\hooks\\rthooks\\pyi_rth_pythoncom.py',
   'PYSOURCE'),
  ('DSAI_reExcel',
   'E:\\_MASTER\\Projects\\py exe\\DSAI_reExcel.py',
   'PYSOURCE')],
 [('inspect',
   'C:\\Users\\TUF\\AppData\\Local\\Programs\\Python\\Python311\\Lib\\inspect.py',
   'PYMODULE'),
  ('importlib',
   'C:\\Users\\TUF\\AppData\\Local\\Programs\\Python\\Python311\\Lib\\importlib\\__init__.py',
   'PYMODULE'),
  ('importlib._bootstrap_external',
   'C:\\Users\\TUF\\AppData\\Local\\Programs\\Python\\Python311\\Lib\\importlib\\_bootstrap_external.py',
   'PYMODULE'),
  ('importlib.metadata',
   'C:\\Users\\TUF\\AppData\\Local\\Programs\\Python\\Python311\\Lib\\importlib\\metadata\\__init__.py',
   'PYMODULE'),
  ('typing',
   'C:\\Users\\TUF\\AppData\\Local\\Programs\\Python\\Python311\\Lib\\typing.py',
   'PYMODULE'),
  ('importlib.abc',
   'C:\\Users\\TUF\\AppData\\Local\\Programs\\Python\\Python311\\Lib\\importlib\\abc.py',
   'PYMODULE'),
  ('importlib.resources.abc',
   'C:\\Users\\TUF\\AppData\\Local\\Programs\\Python\\Python311\\Lib\\importlib\\resources\\abc.py',
   'PYMODULE'),
  ('importlib.resources',
   'C:\\Users\\TUF\\AppData\\Local\\Programs\\Python\\Python311\\Lib\\importlib\\resources\\__init__.py',
   'PYMODULE'),
  ('importlib.resources._legacy',
   'C:\\Users\\TUF\\AppData\\Local\\Programs\\Python\\Python311\\Lib\\importlib\\resources\\_legacy.py',
   'PYMODULE'),
  ('importlib.resources._common',
   'C:\\Users\\TUF\\AppData\\Local\\Programs\\Python\\Python311\\Lib\\importlib\\resources\\_common.py',
   'PYMODULE'),
  ('importlib.resources._adapters',
   'C:\\Users\\TUF\\AppData\\Local\\Programs\\Python\\Python311\\Lib\\importlib\\resources\\_adapters.py',
   'PYMODULE'),
  ('tempfile',
   'C:\\Users\\TUF\\AppData\\Local\\Programs\\Python\\Python311\\Lib\\tempfile.py',
   'PYMODULE'),
  ('random',
   'C:\\Users\\TUF\\AppData\\Local\\Programs\\Python\\Python311\\Lib\\random.py',
   'PYMODULE'),
  ('statistics',
   'C:\\Users\\TUF\\AppData\\Local\\Programs\\Python\\Python311\\Lib\\statistics.py',
   'PYMODULE'),
  ('decimal',
   'C:\\Users\\TUF\\AppData\\Local\\Programs\\Python\\Python311\\Lib\\decimal.py',
   'PYMODULE'),
  ('_pydecimal',
   'C:\\Users\\TUF\\AppData\\Local\\Programs\\Python\\Python311\\Lib\\_pydecimal.py',
   'PYMODULE'),
  ('contextvars',
   'C:\\Users\\TUF\\AppData\\Local\\Programs\\Python\\Python311\\Lib\\contextvars.py',
   'PYMODULE'),
  ('fractions',
   'C:\\Users\\TUF\\AppData\\Local\\Programs\\Python\\Python311\\Lib\\fractions.py',
   'PYMODULE'),
  ('numbers',
   'C:\\Users\\TUF\\AppData\\Local\\Programs\\Python\\Python311\\Lib\\numbers.py',
   'PYMODULE'),
  ('hashlib',
   'C:\\Users\\TUF\\AppData\\Local\\Programs\\Python\\Python311\\Lib\\hashlib.py',
   'PYMODULE'),
  ('logging',
   'C:\\Users\\TUF\\AppData\\Local\\Programs\\Python\\Python311\\Lib\\logging\\__init__.py',
   'PYMODULE'),
  ('pickle',
   'C:\\Users\\TUF\\AppData\\Local\\Programs\\Python\\Python311\\Lib\\pickle.py',
   'PYMODULE'),
  ('pprint',
   'C:\\Users\\TUF\\AppData\\Local\\Programs\\Python\\Python311\\Lib\\pprint.py',
   'PYMODULE'),
  ('dataclasses',
   'C:\\Users\\TUF\\AppData\\Local\\Programs\\Python\\Python311\\Lib\\dataclasses.py',
   'PYMODULE'),
  ('copy',
   'C:\\Users\\TUF\\AppData\\Local\\Programs\\Python\\Python311\\Lib\\copy.py',
   'PYMODULE'),
  ('_compat_pickle',
   'C:\\Users\\TUF\\AppData\\Local\\Programs\\Python\\Python311\\Lib\\_compat_pickle.py',
   'PYMODULE'),
  ('struct',
   'C:\\Users\\TUF\\AppData\\Local\\Programs\\Python\\Python311\\Lib\\struct.py',
   'PYMODULE'),
  ('threading',
   'C:\\Users\\TUF\\AppData\\Local\\Programs\\Python\\Python311\\Lib\\threading.py',
   'PYMODULE'),
  ('_threading_local',
   'C:\\Users\\TUF\\AppData\\Local\\Programs\\Python\\Python311\\Lib\\_threading_local.py',
   'PYMODULE'),
  ('string',
   'C:\\Users\\TUF\\AppData\\Local\\Programs\\Python\\Python311\\Lib\\string.py',
   'PYMODULE'),
  ('bisect',
   'C:\\Users\\TUF\\AppData\\Local\\Programs\\Python\\Python311\\Lib\\bisect.py',
   'PYMODULE'),
  ('shutil',
   'C:\\Users\\TUF\\AppData\\Local\\Programs\\Python\\Python311\\Lib\\shutil.py',
   'PYMODULE'),
  ('tarfile',
   'C:\\Users\\TUF\\AppData\\Local\\Programs\\Python\\Python311\\Lib\\tarfile.py',
   'PYMODULE'),
  ('gzip',
   'C:\\Users\\TUF\\AppData\\Local\\Programs\\Python\\Python311\\Lib\\gzip.py',
   'PYMODULE'),
  ('_compression',
   'C:\\Users\\TUF\\AppData\\Local\\Programs\\Python\\Python311\\Lib\\_compression.py',
   'PYMODULE'),
  ('lzma',
   'C:\\Users\\TUF\\AppData\\Local\\Programs\\Python\\Python311\\Lib\\lzma.py',
   'PYMODULE'),
  ('bz2',
   'C:\\Users\\TUF\\AppData\\Local\\Programs\\Python\\Python311\\Lib\\bz2.py',
   'PYMODULE'),
  ('fnmatch',
   'C:\\Users\\TUF\\AppData\\Local\\Programs\\Python\\Python311\\Lib\\fnmatch.py',
   'PYMODULE'),
  ('importlib._abc',
   'C:\\Users\\TUF\\AppData\\Local\\Programs\\Python\\Python311\\Lib\\importlib\\_abc.py',
   'PYMODULE'),
  ('contextlib',
   'C:\\Users\\TUF\\AppData\\Local\\Programs\\Python\\Python311\\Lib\\contextlib.py',
   'PYMODULE'),
  ('importlib.metadata._itertools',
   'C:\\Users\\TUF\\AppData\\Local\\Programs\\Python\\Python311\\Lib\\importlib\\metadata\\_itertools.py',
   'PYMODULE'),
  ('importlib.metadata._functools',
   'C:\\Users\\TUF\\AppData\\Local\\Programs\\Python\\Python311\\Lib\\importlib\\metadata\\_functools.py',
   'PYMODULE'),
  ('importlib.metadata._collections',
   'C:\\Users\\TUF\\AppData\\Local\\Programs\\Python\\Python311\\Lib\\importlib\\metadata\\_collections.py',
   'PYMODULE'),
  ('importlib.metadata._meta',
   'C:\\Users\\TUF\\AppData\\Local\\Programs\\Python\\Python311\\Lib\\importlib\\metadata\\_meta.py',
   'PYMODULE'),
  ('importlib.metadata._adapters',
   'C:\\Users\\TUF\\AppData\\Local\\Programs\\Python\\Python311\\Lib\\importlib\\metadata\\_adapters.py',
   'PYMODULE'),
  ('importlib.metadata._text',
   'C:\\Users\\TUF\\AppData\\Local\\Programs\\Python\\Python311\\Lib\\importlib\\metadata\\_text.py',
   'PYMODULE'),
  ('email.message',
   'C:\\Users\\TUF\\AppData\\Local\\Programs\\Python\\Python311\\Lib\\email\\message.py',
   'PYMODULE'),
  ('email.policy',
   'C:\\Users\\TUF\\AppData\\Local\\Programs\\Python\\Python311\\Lib\\email\\policy.py',
   'PYMODULE'),
  ('email.contentmanager',
   'C:\\Users\\TUF\\AppData\\Local\\Programs\\Python\\Python311\\Lib\\email\\contentmanager.py',
   'PYMODULE'),
  ('email.quoprimime',
   'C:\\Users\\TUF\\AppData\\Local\\Programs\\Python\\Python311\\Lib\\email\\quoprimime.py',
   'PYMODULE'),
  ('email.headerregistry',
   'C:\\Users\\TUF\\AppData\\Local\\Programs\\Python\\Python311\\Lib\\email\\headerregistry.py',
   'PYMODULE'),
  ('email._header_value_parser',
   'C:\\Users\\TUF\\AppData\\Local\\Programs\\Python\\Python311\\Lib\\email\\_header_value_parser.py',
   'PYMODULE'),
  ('urllib',
   'C:\\Users\\TUF\\AppData\\Local\\Programs\\Python\\Python311\\Lib\\urllib\\__init__.py',
   'PYMODULE'),
  ('email.iterators',
   'C:\\Users\\TUF\\AppData\\Local\\Programs\\Python\\Python311\\Lib\\email\\iterators.py',
   'PYMODULE'),
  ('email.generator',
   'C:\\Users\\TUF\\AppData\\Local\\Programs\\Python\\Python311\\Lib\\email\\generator.py',
   'PYMODULE'),
  ('email._encoded_words',
   'C:\\Users\\TUF\\AppData\\Local\\Programs\\Python\\Python311\\Lib\\email\\_encoded_words.py',
   'PYMODULE'),
  ('base64',
   'C:\\Users\\TUF\\AppData\\Local\\Programs\\Python\\Python311\\Lib\\base64.py',
   'PYMODULE'),
  ('getopt',
   'C:\\Users\\TUF\\AppData\\Local\\Programs\\Python\\Python311\\Lib\\getopt.py',
   'PYMODULE'),
  ('gettext',
   'C:\\Users\\TUF\\AppData\\Local\\Programs\\Python\\Python311\\Lib\\gettext.py',
   'PYMODULE'),
  ('email.charset',
   'C:\\Users\\TUF\\AppData\\Local\\Programs\\Python\\Python311\\Lib\\email\\charset.py',
   'PYMODULE'),
  ('email.encoders',
   'C:\\Users\\TUF\\AppData\\Local\\Programs\\Python\\Python311\\Lib\\email\\encoders.py',
   'PYMODULE'),
  ('email.base64mime',
   'C:\\Users\\TUF\\AppData\\Local\\Programs\\Python\\Python311\\Lib\\email\\base64mime.py',
   'PYMODULE'),
  ('email._policybase',
   'C:\\Users\\TUF\\AppData\\Local\\Programs\\Python\\Python311\\Lib\\email\\_policybase.py',
   'PYMODULE'),
  ('email.header',
   'C:\\Users\\TUF\\AppData\\Local\\Programs\\Python\\Python311\\Lib\\email\\header.py',
   'PYMODULE'),
  ('email.errors',
   'C:\\Users\\TUF\\AppData\\Local\\Programs\\Python\\Python311\\Lib\\email\\errors.py',
   'PYMODULE'),
  ('email.utils',
   'C:\\Users\\TUF\\AppData\\Local\\Programs\\Python\\Python311\\Lib\\email\\utils.py',
   'PYMODULE'),
  ('email._parseaddr',
   'C:\\Users\\TUF\\AppData\\Local\\Programs\\Python\\Python311\\Lib\\email\\_parseaddr.py',
   'PYMODULE'),
  ('calendar',
   'C:\\Users\\TUF\\AppData\\Local\\Programs\\Python\\Python311\\Lib\\calendar.py',
   'PYMODULE'),
  ('urllib.parse',
   'C:\\Users\\TUF\\AppData\\Local\\Programs\\Python\\Python311\\Lib\\urllib\\parse.py',
   'PYMODULE'),
  ('socket',
   'C:\\Users\\TUF\\AppData\\Local\\Programs\\Python\\Python311\\Lib\\socket.py',
   'PYMODULE'),
  ('selectors',
   'C:\\Users\\TUF\\AppData\\Local\\Programs\\Python\\Python311\\Lib\\selectors.py',
   'PYMODULE'),
  ('quopri',
   'C:\\Users\\TUF\\AppData\\Local\\Programs\\Python\\Python311\\Lib\\quopri.py',
   'PYMODULE'),
  ('textwrap',
   'C:\\Users\\TUF\\AppData\\Local\\Programs\\Python\\Python311\\Lib\\textwrap.py',
   'PYMODULE'),
  ('zipfile',
   'C:\\Users\\TUF\\AppData\\Local\\Programs\\Python\\Python311\\Lib\\zipfile.py',
   'PYMODULE'),
  ('py_compile',
   'C:\\Users\\TUF\\AppData\\Local\\Programs\\Python\\Python311\\Lib\\py_compile.py',
   'PYMODULE'),
  ('importlib.util',
   'C:\\Users\\TUF\\AppData\\Local\\Programs\\Python\\Python311\\Lib\\importlib\\util.py',
   'PYMODULE'),
  ('pathlib',
   'C:\\Users\\TUF\\AppData\\Local\\Programs\\Python\\Python311\\Lib\\pathlib.py',
   'PYMODULE'),
  ('email',
   'C:\\Users\\TUF\\AppData\\Local\\Programs\\Python\\Python311\\Lib\\email\\__init__.py',
   'PYMODULE'),
  ('email.parser',
   'C:\\Users\\TUF\\AppData\\Local\\Programs\\Python\\Python311\\Lib\\email\\parser.py',
   'PYMODULE'),
  ('email.feedparser',
   'C:\\Users\\TUF\\AppData\\Local\\Programs\\Python\\Python311\\Lib\\email\\feedparser.py',
   'PYMODULE'),
  ('csv',
   'C:\\Users\\TUF\\AppData\\Local\\Programs\\Python\\Python311\\Lib\\csv.py',
   'PYMODULE'),
  ('importlib.readers',
   'C:\\Users\\TUF\\AppData\\Local\\Programs\\Python\\Python311\\Lib\\importlib\\readers.py',
   'PYMODULE'),
  ('importlib.resources.readers',
   'C:\\Users\\TUF\\AppData\\Local\\Programs\\Python\\Python311\\Lib\\importlib\\resources\\readers.py',
   'PYMODULE'),
  ('importlib.resources._itertools',
   'C:\\Users\\TUF\\AppData\\Local\\Programs\\Python\\Python311\\Lib\\importlib\\resources\\_itertools.py',
   'PYMODULE'),
  ('importlib._bootstrap',
   'C:\\Users\\TUF\\AppData\\Local\\Programs\\Python\\Python311\\Lib\\importlib\\_bootstrap.py',
   'PYMODULE'),
  ('argparse',
   'C:\\Users\\TUF\\AppData\\Local\\Programs\\Python\\Python311\\Lib\\argparse.py',
   'PYMODULE'),
  ('token',
   'C:\\Users\\TUF\\AppData\\Local\\Programs\\Python\\Python311\\Lib\\token.py',
   'PYMODULE'),
  ('tokenize',
   'C:\\Users\\TUF\\AppData\\Local\\Programs\\Python\\Python311\\Lib\\tokenize.py',
   'PYMODULE'),
  ('importlib.machinery',
   'C:\\Users\\TUF\\AppData\\Local\\Programs\\Python\\Python311\\Lib\\importlib\\machinery.py',
   'PYMODULE'),
  ('dis',
   'C:\\Users\\TUF\\AppData\\Local\\Programs\\Python\\Python311\\Lib\\dis.py',
   'PYMODULE'),
  ('opcode',
   'C:\\Users\\TUF\\AppData\\Local\\Programs\\Python\\Python311\\Lib\\opcode.py',
   'PYMODULE'),
  ('ast',
   'C:\\Users\\TUF\\AppData\\Local\\Programs\\Python\\Python311\\Lib\\ast.py',
   'PYMODULE'),
  ('stringprep',
   'C:\\Users\\TUF\\AppData\\Local\\Programs\\Python\\Python311\\Lib\\stringprep.py',
   'PYMODULE'),
  ('tracemalloc',
   'C:\\Users\\TUF\\AppData\\Local\\Programs\\Python\\Python311\\Lib\\tracemalloc.py',
   'PYMODULE'),
  ('_py_abc',
   'C:\\Users\\TUF\\AppData\\Local\\Programs\\Python\\Python311\\Lib\\_py_abc.py',
   'PYMODULE'),
  ('datetime',
   'C:\\Users\\TUF\\AppData\\Local\\Programs\\Python\\Python311\\Lib\\datetime.py',
   'PYMODULE'),
  ('_strptime',
   'C:\\Users\\TUF\\AppData\\Local\\Programs\\Python\\Python311\\Lib\\_strptime.py',
   'PYMODULE'),
  ('subprocess',
   'C:\\Users\\TUF\\AppData\\Local\\Programs\\Python\\Python311\\Lib\\subprocess.py',
   'PYMODULE'),
  ('signal',
   'C:\\Users\\TUF\\AppData\\Local\\Programs\\Python\\Python311\\Lib\\signal.py',
   'PYMODULE'),
  ('win32com.client',
   'C:\\Users\\TUF\\AppData\\Roaming\\Python\\Python311\\site-packages\\win32com\\client\\__init__.py',
   'PYMODULE'),
  ('winerror',
   'C:\\Users\\TUF\\AppData\\Roaming\\Python\\Python311\\site-packages\\win32\\lib\\winerror.py',
   'PYMODULE'),
  ('win32com.client.makepy',
   'C:\\Users\\TUF\\AppData\\Roaming\\Python\\Python311\\site-packages\\win32com\\client\\makepy.py',
   'PYMODULE'),
  ('pywin.dialogs.status',
   'C:\\Users\\TUF\\AppData\\Roaming\\Python\\Python311\\site-packages\\Pythonwin\\pywin\\dialogs\\status.py',
   'PYMODULE'),
  ('pywin.mfc.thread',
   'C:\\Users\\TUF\\AppData\\Roaming\\Python\\Python311\\site-packages\\Pythonwin\\pywin\\mfc\\thread.py',
   'PYMODULE'),
  ('pywin.mfc.object',
   'C:\\Users\\TUF\\AppData\\Roaming\\Python\\Python311\\site-packages\\Pythonwin\\pywin\\mfc\\object.py',
   'PYMODULE'),
  ('pywin.mfc.dialog',
   'C:\\Users\\TUF\\AppData\\Roaming\\Python\\Python311\\site-packages\\Pythonwin\\pywin\\mfc\\dialog.py',
   'PYMODULE'),
  ('pywin.mfc.window',
   'C:\\Users\\TUF\\AppData\\Roaming\\Python\\Python311\\site-packages\\Pythonwin\\pywin\\mfc\\window.py',
   'PYMODULE'),
  ('pywin.mfc',
   'C:\\Users\\TUF\\AppData\\Roaming\\Python\\Python311\\site-packages\\Pythonwin\\pywin\\mfc\\__init__.py',
   'PYMODULE'),
  ('win32con',
   'C:\\Users\\TUF\\AppData\\Roaming\\Python\\Python311\\site-packages\\win32\\lib\\win32con.py',
   'PYMODULE'),
  ('pywin.dialogs',
   'C:\\Users\\TUF\\AppData\\Roaming\\Python\\Python311\\site-packages\\Pythonwin\\pywin\\dialogs\\__init__.py',
   'PYMODULE'),
  ('pywin',
   'C:\\Users\\TUF\\AppData\\Roaming\\Python\\Python311\\site-packages\\Pythonwin\\pywin\\__init__.py',
   'PYMODULE'),
  ('win32com.client.selecttlb',
   'C:\\Users\\TUF\\AppData\\Roaming\\Python\\Python311\\site-packages\\win32com\\client\\selecttlb.py',
   'PYMODULE'),
  ('pywin.dialogs.list',
   'C:\\Users\\TUF\\AppData\\Roaming\\Python\\Python311\\site-packages\\Pythonwin\\pywin\\dialogs\\list.py',
   'PYMODULE'),
  ('commctrl',
   'C:\\Users\\TUF\\AppData\\Roaming\\Python\\Python311\\site-packages\\win32\\lib\\commctrl.py',
   'PYMODULE'),
  ('win32com.client.genpy',
   'C:\\Users\\TUF\\AppData\\Roaming\\Python\\Python311\\site-packages\\win32com\\client\\genpy.py',
   'PYMODULE'),
  ('win32com.client.gencache',
   'C:\\Users\\TUF\\AppData\\Roaming\\Python\\Python311\\site-packages\\win32com\\client\\gencache.py',
   'PYMODULE'),
  ('glob',
   'C:\\Users\\TUF\\AppData\\Local\\Programs\\Python\\Python311\\Lib\\glob.py',
   'PYMODULE'),
  ('win32com.client.CLSIDToClass',
   'C:\\Users\\TUF\\AppData\\Roaming\\Python\\Python311\\site-packages\\win32com\\client\\CLSIDToClass.py',
   'PYMODULE'),
  ('win32com.client.dynamic',
   'C:\\Users\\TUF\\AppData\\Roaming\\Python\\Python311\\site-packages\\win32com\\client\\dynamic.py',
   'PYMODULE'),
  ('win32com.client.util',
   'C:\\Users\\TUF\\AppData\\Roaming\\Python\\Python311\\site-packages\\win32com\\client\\util.py',
   'PYMODULE'),
  ('win32com.client.build',
   'C:\\Users\\TUF\\AppData\\Roaming\\Python\\Python311\\site-packages\\win32com\\client\\build.py',
   'PYMODULE'),
  ('win32com',
   'C:\\Users\\TUF\\AppData\\Roaming\\Python\\Python311\\site-packages\\win32com\\__init__.py',
   'PYMODULE'),
  ('win32com.server.util',
   'C:\\Users\\TUF\\AppData\\Roaming\\Python\\Python311\\site-packages\\win32com\\server\\util.py',
   'PYMODULE'),
  ('win32com.server.dispatcher',
   'C:\\Users\\TUF\\AppData\\Roaming\\Python\\Python311\\site-packages\\win32com\\server\\dispatcher.py',
   'PYMODULE'),
  ('win32traceutil',
   'C:\\Users\\TUF\\AppData\\Roaming\\Python\\Python311\\site-packages\\win32\\lib\\win32traceutil.py',
   'PYMODULE'),
  ('win32com.util',
   'C:\\Users\\TUF\\AppData\\Roaming\\Python\\Python311\\site-packages\\win32com\\util.py',
   'PYMODULE'),
  ('win32com.server.exception',
   'C:\\Users\\TUF\\AppData\\Roaming\\Python\\Python311\\site-packages\\win32com\\server\\exception.py',
   'PYMODULE'),
  ('win32com.server.policy',
   'C:\\Users\\TUF\\AppData\\Roaming\\Python\\Python311\\site-packages\\win32com\\server\\policy.py',
   'PYMODULE'),
  ('win32com.server',
   'C:\\Users\\TUF\\AppData\\Roaming\\Python\\Python311\\site-packages\\win32com\\server\\__init__.py',
   'PYMODULE'),
  ('win32com.universal',
   'C:\\Users\\TUF\\AppData\\Roaming\\Python\\Python311\\site-packages\\win32com\\universal.py',
   'PYMODULE'),
  ('pywintypes',
   'C:\\Users\\TUF\\AppData\\Roaming\\Python\\Python311\\site-packages\\win32\\lib\\pywintypes.py',
   'PYMODULE'),
  ('pywin32_system32', '-', 'PYMODULE'),
  ('pythoncom',
   'C:\\Users\\TUF\\AppData\\Roaming\\Python\\Python311\\site-packages\\pythoncom.py',
   'PYMODULE')],
 [('python311.dll',
   'C:\\Users\\TUF\\AppData\\Local\\Programs\\Python\\Python311\\python311.dll',
   'BINARY'),
  ('pywin32_system32\\pywintypes311.dll',
   'C:\\Users\\TUF\\AppData\\Roaming\\Python\\Python311\\site-packages\\pywin32_system32\\pywintypes311.dll',
   'BINARY'),
  ('pywin32_system32\\pythoncom311.dll',
   'C:\\Users\\TUF\\AppData\\Roaming\\Python\\Python311\\site-packages\\pywin32_system32\\pythoncom311.dll',
   'BINARY'),
  ('_decimal.pyd',
   'C:\\Users\\TUF\\AppData\\Local\\Programs\\Python\\Python311\\DLLs\\_decimal.pyd',
   'EXTENSION'),
  ('_hashlib.pyd',
   'C:\\Users\\TUF\\AppData\\Local\\Programs\\Python\\Python311\\DLLs\\_hashlib.pyd',
   'EXTENSION'),
  ('_lzma.pyd',
   'C:\\Users\\TUF\\AppData\\Local\\Programs\\Python\\Python311\\DLLs\\_lzma.pyd',
   'EXTENSION'),
  ('_bz2.pyd',
   'C:\\Users\\TUF\\AppData\\Local\\Programs\\Python\\Python311\\DLLs\\_bz2.pyd',
   'EXTENSION'),
  ('unicodedata.pyd',
   'C:\\Users\\TUF\\AppData\\Local\\Programs\\Python\\Python311\\DLLs\\unicodedata.pyd',
   'EXTENSION'),
  ('select.pyd',
   'C:\\Users\\TUF\\AppData\\Local\\Programs\\Python\\Python311\\DLLs\\select.pyd',
   'EXTENSION'),
  ('_socket.pyd',
   'C:\\Users\\TUF\\AppData\\Local\\Programs\\Python\\Python311\\DLLs\\_socket.pyd',
   'EXTENSION'),
  ('win32\\win32api.pyd',
   'C:\\Users\\TUF\\AppData\\Roaming\\Python\\Python311\\site-packages\\win32\\win32api.pyd',
   'EXTENSION'),
  ('Pythonwin\\win32ui.pyd',
   'C:\\Users\\TUF\\AppData\\Roaming\\Python\\Python311\\site-packages\\Pythonwin\\win32ui.pyd',
   'EXTENSION'),
  ('win32\\win32trace.pyd',
   'C:\\Users\\TUF\\AppData\\Roaming\\Python\\Python311\\site-packages\\win32\\win32trace.pyd',
   'EXTENSION'),
  ('win32\\_win32sysloader.pyd',
   'C:\\Users\\TUF\\AppData\\Roaming\\Python\\Python311\\site-packages\\win32\\_win32sysloader.pyd',
   'EXTENSION'),
  ('VCRUNTIME140.dll',
   'C:\\Users\\TUF\\AppData\\Local\\Programs\\Python\\Python311\\VCRUNTIME140.dll',
   'BINARY'),
  ('api-ms-win-crt-conio-l1-1-0.dll',
   'C:\\Program Files\\Java\\jdk-1.8\\bin\\api-ms-win-crt-conio-l1-1-0.dll',
   'BINARY'),
  ('api-ms-win-crt-stdio-l1-1-0.dll',
   'C:\\Program Files\\Java\\jdk-1.8\\bin\\api-ms-win-crt-stdio-l1-1-0.dll',
   'BINARY'),
  ('api-ms-win-crt-convert-l1-1-0.dll',
   'C:\\Program Files\\Java\\jdk-1.8\\bin\\api-ms-win-crt-convert-l1-1-0.dll',
   'BINARY'),
  ('api-ms-win-crt-locale-l1-1-0.dll',
   'C:\\Program Files\\Java\\jdk-1.8\\bin\\api-ms-win-crt-locale-l1-1-0.dll',
   'BINARY'),
  ('api-ms-win-crt-math-l1-1-0.dll',
   'C:\\Program Files\\Java\\jdk-1.8\\bin\\api-ms-win-crt-math-l1-1-0.dll',
   'BINARY'),
  ('api-ms-win-crt-environment-l1-1-0.dll',
   'C:\\Program '
   'Files\\Java\\jdk-1.8\\bin\\api-ms-win-crt-environment-l1-1-0.dll',
   'BINARY'),
  ('api-ms-win-crt-runtime-l1-1-0.dll',
   'C:\\Program Files\\Java\\jdk-1.8\\bin\\api-ms-win-crt-runtime-l1-1-0.dll',
   'BINARY'),
  ('api-ms-win-crt-time-l1-1-0.dll',
   'C:\\Program Files\\Java\\jdk-1.8\\bin\\api-ms-win-crt-time-l1-1-0.dll',
   'BINARY'),
  ('api-ms-win-crt-filesystem-l1-1-0.dll',
   'C:\\Program '
   'Files\\Java\\jdk-1.8\\bin\\api-ms-win-crt-filesystem-l1-1-0.dll',
   'BINARY'),
  ('api-ms-win-crt-string-l1-1-0.dll',
   'C:\\Program Files\\Java\\jdk-1.8\\bin\\api-ms-win-crt-string-l1-1-0.dll',
   'BINARY'),
  ('api-ms-win-crt-process-l1-1-0.dll',
   'C:\\Program Files\\Java\\jdk-1.8\\bin\\api-ms-win-crt-process-l1-1-0.dll',
   'BINARY'),
  ('api-ms-win-crt-heap-l1-1-0.dll',
   'C:\\Program Files\\Java\\jdk-1.8\\bin\\api-ms-win-crt-heap-l1-1-0.dll',
   'BINARY'),
  ('VCRUNTIME140_1.dll',
   'C:\\Users\\TUF\\AppData\\Local\\Programs\\Python\\Python311\\VCRUNTIME140_1.dll',
   'BINARY'),
  ('api-ms-win-crt-utility-l1-1-0.dll',
   'C:\\Program Files\\Java\\jdk-1.8\\bin\\api-ms-win-crt-utility-l1-1-0.dll',
   'BINARY'),
  ('libcrypto-1_1.dll',
   'C:\\Users\\TUF\\AppData\\Local\\Programs\\Python\\Python311\\DLLs\\libcrypto-1_1.dll',
   'BINARY'),
  ('Pythonwin\\mfc140u.dll',
   'C:\\Users\\TUF\\AppData\\Roaming\\Python\\Python311\\site-packages\\Pythonwin\\mfc140u.dll',
   'BINARY'),
  ('ucrtbase.dll',
   'C:\\Program Files\\Java\\jdk-1.8\\bin\\ucrtbase.dll',
   'BINARY'),
  ('api-ms-win-crt-multibyte-l1-1-0.dll',
   'C:\\Program Files\\Java\\jdk-1.8\\bin\\api-ms-win-crt-multibyte-l1-1-0.dll',
   'BINARY'),
  ('api-ms-win-core-debug-l1-1-0.dll',
   'C:\\Program Files\\Java\\jdk-1.8\\bin\\api-ms-win-core-debug-l1-1-0.dll',
   'BINARY'),
  ('api-ms-win-core-sysinfo-l1-1-0.dll',
   'C:\\Program Files\\Java\\jdk-1.8\\bin\\api-ms-win-core-sysinfo-l1-1-0.dll',
   'BINARY'),
  ('api-ms-win-core-file-l2-1-0.dll',
   'C:\\Program Files\\Java\\jdk-1.8\\bin\\api-ms-win-core-file-l2-1-0.dll',
   'BINARY'),
  ('api-ms-win-core-profile-l1-1-0.dll',
   'C:\\Program Files\\Java\\jdk-1.8\\bin\\api-ms-win-core-profile-l1-1-0.dll',
   'BINARY'),
  ('api-ms-win-core-processthreads-l1-1-0.dll',
   'C:\\Program '
   'Files\\Java\\jdk-1.8\\bin\\api-ms-win-core-processthreads-l1-1-0.dll',
   'BINARY'),
  ('api-ms-win-core-synch-l1-2-0.dll',
   'C:\\Program Files\\Java\\jdk-1.8\\bin\\api-ms-win-core-synch-l1-2-0.dll',
   'BINARY'),
  ('api-ms-win-core-localization-l1-2-0.dll',
   'C:\\Program '
   'Files\\Java\\jdk-1.8\\bin\\api-ms-win-core-localization-l1-2-0.dll',
   'BINARY'),
  ('api-ms-win-core-handle-l1-1-0.dll',
   'C:\\Program Files\\Java\\jdk-1.8\\bin\\api-ms-win-core-handle-l1-1-0.dll',
   'BINARY'),
  ('api-ms-win-core-string-l1-1-0.dll',
   'C:\\Program Files\\Java\\jdk-1.8\\bin\\api-ms-win-core-string-l1-1-0.dll',
   'BINARY'),
  ('api-ms-win-core-memory-l1-1-0.dll',
   'C:\\Program Files\\Java\\jdk-1.8\\bin\\api-ms-win-core-memory-l1-1-0.dll',
   'BINARY'),
  ('api-ms-win-core-errorhandling-l1-1-0.dll',
   'C:\\Program '
   'Files\\Java\\jdk-1.8\\bin\\api-ms-win-core-errorhandling-l1-1-0.dll',
   'BINARY'),
  ('api-ms-win-core-heap-l1-1-0.dll',
   'C:\\Program Files\\Java\\jdk-1.8\\bin\\api-ms-win-core-heap-l1-1-0.dll',
   'BINARY'),
  ('api-ms-win-core-interlocked-l1-1-0.dll',
   'C:\\Program '
   'Files\\Java\\jdk-1.8\\bin\\api-ms-win-core-interlocked-l1-1-0.dll',
   'BINARY'),
  ('api-ms-win-core-synch-l1-1-0.dll',
   'C:\\Program Files\\Java\\jdk-1.8\\bin\\api-ms-win-core-synch-l1-1-0.dll',
   'BINARY'),
  ('api-ms-win-core-namedpipe-l1-1-0.dll',
   'C:\\Program '
   'Files\\Java\\jdk-1.8\\bin\\api-ms-win-core-namedpipe-l1-1-0.dll',
   'BINARY'),
  ('api-ms-win-core-util-l1-1-0.dll',
   'C:\\Program Files\\Java\\jdk-1.8\\bin\\api-ms-win-core-util-l1-1-0.dll',
   'BINARY'),
  ('api-ms-win-core-file-l1-2-0.dll',
   'C:\\Program Files\\Java\\jdk-1.8\\bin\\api-ms-win-core-file-l1-2-0.dll',
   'BINARY'),
  ('api-ms-win-core-timezone-l1-1-0.dll',
   'C:\\Program Files\\Java\\jdk-1.8\\bin\\api-ms-win-core-timezone-l1-1-0.dll',
   'BINARY'),
  ('api-ms-win-core-console-l1-1-0.dll',
   'C:\\Program Files\\Java\\jdk-1.8\\bin\\api-ms-win-core-console-l1-1-0.dll',
   'BINARY'),
  ('api-ms-win-core-processthreads-l1-1-1.dll',
   'C:\\Program '
   'Files\\Java\\jdk-1.8\\bin\\api-ms-win-core-processthreads-l1-1-1.dll',
   'BINARY'),
  ('api-ms-win-core-file-l1-1-0.dll',
   'C:\\Program Files\\Java\\jdk-1.8\\bin\\api-ms-win-core-file-l1-1-0.dll',
   'BINARY'),
  ('api-ms-win-core-processenvironment-l1-1-0.dll',
   'C:\\Program '
   'Files\\Java\\jdk-1.8\\bin\\api-ms-win-core-processenvironment-l1-1-0.dll',
   'BINARY'),
  ('api-ms-win-core-rtlsupport-l1-1-0.dll',
   'C:\\Program '
   'Files\\Java\\jdk-1.8\\bin\\api-ms-win-core-rtlsupport-l1-1-0.dll',
   'BINARY'),
  ('api-ms-win-core-libraryloader-l1-1-0.dll',
   'C:\\Program '
   'Files\\Java\\jdk-1.8\\bin\\api-ms-win-core-libraryloader-l1-1-0.dll',
   'BINARY'),
  ('api-ms-win-core-datetime-l1-1-0.dll',
   'C:\\Program Files\\Java\\jdk-1.8\\bin\\api-ms-win-core-datetime-l1-1-0.dll',
   'BINARY')],
 [],
 [],
 [('base_library.zip',
   'E:\\_MASTER\\Projects\\py exe\\build\\DSAI_reExcel\\base_library.zip',
   'DATA')])
