('E:\\_MASTER\\Projects\\py exe\\build\\DSAI_reExcel\\DSAI_reExcel.pkg',
 {'BINARY': True,
  'DATA': True,
  'EXECUTABLE': True,
  'EXTENSION': True,
  'PYMODULE': True,
  'PYSOURCE': True,
  'PYZ': False,
  'SPLASH': True,
  'SYMLINK': False},
 [('pyi-contents-directory _internal', '', 'OPTION'),
  ('PYZ-00.pyz',
   'E:\\_MASTER\\Projects\\py exe\\build\\DSAI_reExcel\\PYZ-00.pyz',
   'PYZ'),
  ('struct',
   'E:\\_MASTER\\Projects\\py exe\\build\\DSAI_reExcel\\localpycs\\struct.pyc',
   'PYMODULE'),
  ('pyimod01_archive',
   'E:\\_MASTER\\Projects\\py '
   'exe\\build\\DSAI_reExcel\\localpycs\\pyimod01_archive.pyc',
   'PYMODULE'),
  ('pyimod02_importers',
   'E:\\_MASTER\\Projects\\py '
   'exe\\build\\DSAI_reExcel\\localpycs\\pyimod02_importers.pyc',
   'PYMODULE'),
  ('pyimod03_ctypes',
   'E:\\_MASTER\\Projects\\py '
   'exe\\build\\DSAI_reExcel\\localpycs\\pyimod03_ctypes.pyc',
   'PYMODULE'),
  ('pyimod04_pywin32',
   'E:\\_MASTER\\Projects\\py '
   'exe\\build\\DSAI_reExcel\\localpycs\\pyimod04_pywin32.pyc',
   'PYMODULE'),
  ('pyiboot01_bootstrap',
   'C:\\Users\\TUF\\AppData\\Local\\Programs\\Python\\Python311\\Lib\\site-packages\\PyInstaller\\loader\\pyiboot01_bootstrap.py',
   'PYSOURCE'),
  ('pyi_rth_inspect',
   'C:\\Users\\TUF\\AppData\\Local\\Programs\\Python\\Python311\\Lib\\site-packages\\PyInstaller\\hooks\\rthooks\\pyi_rth_inspect.py',
   'PYSOURCE'),
  ('pyi_rth_pywintypes',
   'C:\\Users\\TUF\\AppData\\Local\\Programs\\Python\\Python311\\Lib\\site-packages\\_pyinstaller_hooks_contrib\\hooks\\rthooks\\pyi_rth_pywintypes.py',
   'PYSOURCE'),
  ('pyi_rth_pythoncom',
   'C:\\Users\\TUF\\AppData\\Local\\Programs\\Python\\Python311\\Lib\\site-packages\\_pyinstaller_hooks_contrib\\hooks\\rthooks\\pyi_rth_pythoncom.py',
   'PYSOURCE'),
  ('DSAI_reExcel',
   'E:\\_MASTER\\Projects\\py exe\\DSAI_reExcel.py',
   'PYSOURCE'),
  ('python311.dll',
   'C:\\Users\\TUF\\AppData\\Local\\Programs\\Python\\Python311\\python311.dll',
   'BINARY'),
  ('pywin32_system32\\pywintypes311.dll',
   'C:\\Users\\TUF\\AppData\\Roaming\\Python\\Python311\\site-packages\\pywin32_system32\\pywintypes311.dll',
   'BINARY'),
  ('pywin32_system32\\pythoncom311.dll',
   'C:\\Users\\TUF\\AppData\\Roaming\\Python\\Python311\\site-packages\\pywin32_system32\\pythoncom311.dll',
   'BINARY'),
  ('_decimal.pyd',
   'C:\\Users\\TUF\\AppData\\Local\\Programs\\Python\\Python311\\DLLs\\_decimal.pyd',
   'EXTENSION'),
  ('_hashlib.pyd',
   'C:\\Users\\TUF\\AppData\\Local\\Programs\\Python\\Python311\\DLLs\\_hashlib.pyd',
   'EXTENSION'),
  ('_lzma.pyd',
   'C:\\Users\\TUF\\AppData\\Local\\Programs\\Python\\Python311\\DLLs\\_lzma.pyd',
   'EXTENSION'),
  ('_bz2.pyd',
   'C:\\Users\\TUF\\AppData\\Local\\Programs\\Python\\Python311\\DLLs\\_bz2.pyd',
   'EXTENSION'),
  ('unicodedata.pyd',
   'C:\\Users\\TUF\\AppData\\Local\\Programs\\Python\\Python311\\DLLs\\unicodedata.pyd',
   'EXTENSION'),
  ('select.pyd',
   'C:\\Users\\TUF\\AppData\\Local\\Programs\\Python\\Python311\\DLLs\\select.pyd',
   'EXTENSION'),
  ('_socket.pyd',
   'C:\\Users\\TUF\\AppData\\Local\\Programs\\Python\\Python311\\DLLs\\_socket.pyd',
   'EXTENSION'),
  ('win32\\win32api.pyd',
   'C:\\Users\\TUF\\AppData\\Roaming\\Python\\Python311\\site-packages\\win32\\win32api.pyd',
   'EXTENSION'),
  ('Pythonwin\\win32ui.pyd',
   'C:\\Users\\TUF\\AppData\\Roaming\\Python\\Python311\\site-packages\\Pythonwin\\win32ui.pyd',
   'EXTENSION'),
  ('win32\\win32trace.pyd',
   'C:\\Users\\TUF\\AppData\\Roaming\\Python\\Python311\\site-packages\\win32\\win32trace.pyd',
   'EXTENSION'),
  ('win32\\_win32sysloader.pyd',
   'C:\\Users\\TUF\\AppData\\Roaming\\Python\\Python311\\site-packages\\win32\\_win32sysloader.pyd',
   'EXTENSION'),
  ('VCRUNTIME140.dll',
   'C:\\Users\\TUF\\AppData\\Local\\Programs\\Python\\Python311\\VCRUNTIME140.dll',
   'BINARY'),
  ('api-ms-win-crt-conio-l1-1-0.dll',
   'C:\\Program Files\\Java\\jdk-1.8\\bin\\api-ms-win-crt-conio-l1-1-0.dll',
   'BINARY'),
  ('api-ms-win-crt-stdio-l1-1-0.dll',
   'C:\\Program Files\\Java\\jdk-1.8\\bin\\api-ms-win-crt-stdio-l1-1-0.dll',
   'BINARY'),
  ('api-ms-win-crt-convert-l1-1-0.dll',
   'C:\\Program Files\\Java\\jdk-1.8\\bin\\api-ms-win-crt-convert-l1-1-0.dll',
   'BINARY'),
  ('api-ms-win-crt-locale-l1-1-0.dll',
   'C:\\Program Files\\Java\\jdk-1.8\\bin\\api-ms-win-crt-locale-l1-1-0.dll',
   'BINARY'),
  ('api-ms-win-crt-math-l1-1-0.dll',
   'C:\\Program Files\\Java\\jdk-1.8\\bin\\api-ms-win-crt-math-l1-1-0.dll',
   'BINARY'),
  ('api-ms-win-crt-environment-l1-1-0.dll',
   'C:\\Program '
   'Files\\Java\\jdk-1.8\\bin\\api-ms-win-crt-environment-l1-1-0.dll',
   'BINARY'),
  ('api-ms-win-crt-runtime-l1-1-0.dll',
   'C:\\Program Files\\Java\\jdk-1.8\\bin\\api-ms-win-crt-runtime-l1-1-0.dll',
   'BINARY'),
  ('api-ms-win-crt-time-l1-1-0.dll',
   'C:\\Program Files\\Java\\jdk-1.8\\bin\\api-ms-win-crt-time-l1-1-0.dll',
   'BINARY'),
  ('api-ms-win-crt-filesystem-l1-1-0.dll',
   'C:\\Program '
   'Files\\Java\\jdk-1.8\\bin\\api-ms-win-crt-filesystem-l1-1-0.dll',
   'BINARY'),
  ('api-ms-win-crt-string-l1-1-0.dll',
   'C:\\Program Files\\Java\\jdk-1.8\\bin\\api-ms-win-crt-string-l1-1-0.dll',
   'BINARY'),
  ('api-ms-win-crt-process-l1-1-0.dll',
   'C:\\Program Files\\Java\\jdk-1.8\\bin\\api-ms-win-crt-process-l1-1-0.dll',
   'BINARY'),
  ('api-ms-win-crt-heap-l1-1-0.dll',
   'C:\\Program Files\\Java\\jdk-1.8\\bin\\api-ms-win-crt-heap-l1-1-0.dll',
   'BINARY'),
  ('VCRUNTIME140_1.dll',
   'C:\\Users\\TUF\\AppData\\Local\\Programs\\Python\\Python311\\VCRUNTIME140_1.dll',
   'BINARY'),
  ('api-ms-win-crt-utility-l1-1-0.dll',
   'C:\\Program Files\\Java\\jdk-1.8\\bin\\api-ms-win-crt-utility-l1-1-0.dll',
   'BINARY'),
  ('libcrypto-1_1.dll',
   'C:\\Users\\TUF\\AppData\\Local\\Programs\\Python\\Python311\\DLLs\\libcrypto-1_1.dll',
   'BINARY'),
  ('Pythonwin\\mfc140u.dll',
   'C:\\Users\\TUF\\AppData\\Roaming\\Python\\Python311\\site-packages\\Pythonwin\\mfc140u.dll',
   'BINARY'),
  ('ucrtbase.dll',
   'C:\\Program Files\\Java\\jdk-1.8\\bin\\ucrtbase.dll',
   'BINARY'),
  ('api-ms-win-crt-multibyte-l1-1-0.dll',
   'C:\\Program Files\\Java\\jdk-1.8\\bin\\api-ms-win-crt-multibyte-l1-1-0.dll',
   'BINARY'),
  ('api-ms-win-core-debug-l1-1-0.dll',
   'C:\\Program Files\\Java\\jdk-1.8\\bin\\api-ms-win-core-debug-l1-1-0.dll',
   'BINARY'),
  ('api-ms-win-core-sysinfo-l1-1-0.dll',
   'C:\\Program Files\\Java\\jdk-1.8\\bin\\api-ms-win-core-sysinfo-l1-1-0.dll',
   'BINARY'),
  ('api-ms-win-core-file-l2-1-0.dll',
   'C:\\Program Files\\Java\\jdk-1.8\\bin\\api-ms-win-core-file-l2-1-0.dll',
   'BINARY'),
  ('api-ms-win-core-profile-l1-1-0.dll',
   'C:\\Program Files\\Java\\jdk-1.8\\bin\\api-ms-win-core-profile-l1-1-0.dll',
   'BINARY'),
  ('api-ms-win-core-processthreads-l1-1-0.dll',
   'C:\\Program '
   'Files\\Java\\jdk-1.8\\bin\\api-ms-win-core-processthreads-l1-1-0.dll',
   'BINARY'),
  ('api-ms-win-core-synch-l1-2-0.dll',
   'C:\\Program Files\\Java\\jdk-1.8\\bin\\api-ms-win-core-synch-l1-2-0.dll',
   'BINARY'),
  ('api-ms-win-core-localization-l1-2-0.dll',
   'C:\\Program '
   'Files\\Java\\jdk-1.8\\bin\\api-ms-win-core-localization-l1-2-0.dll',
   'BINARY'),
  ('api-ms-win-core-handle-l1-1-0.dll',
   'C:\\Program Files\\Java\\jdk-1.8\\bin\\api-ms-win-core-handle-l1-1-0.dll',
   'BINARY'),
  ('api-ms-win-core-string-l1-1-0.dll',
   'C:\\Program Files\\Java\\jdk-1.8\\bin\\api-ms-win-core-string-l1-1-0.dll',
   'BINARY'),
  ('api-ms-win-core-memory-l1-1-0.dll',
   'C:\\Program Files\\Java\\jdk-1.8\\bin\\api-ms-win-core-memory-l1-1-0.dll',
   'BINARY'),
  ('api-ms-win-core-errorhandling-l1-1-0.dll',
   'C:\\Program '
   'Files\\Java\\jdk-1.8\\bin\\api-ms-win-core-errorhandling-l1-1-0.dll',
   'BINARY'),
  ('api-ms-win-core-heap-l1-1-0.dll',
   'C:\\Program Files\\Java\\jdk-1.8\\bin\\api-ms-win-core-heap-l1-1-0.dll',
   'BINARY'),
  ('api-ms-win-core-interlocked-l1-1-0.dll',
   'C:\\Program '
   'Files\\Java\\jdk-1.8\\bin\\api-ms-win-core-interlocked-l1-1-0.dll',
   'BINARY'),
  ('api-ms-win-core-synch-l1-1-0.dll',
   'C:\\Program Files\\Java\\jdk-1.8\\bin\\api-ms-win-core-synch-l1-1-0.dll',
   'BINARY'),
  ('api-ms-win-core-namedpipe-l1-1-0.dll',
   'C:\\Program '
   'Files\\Java\\jdk-1.8\\bin\\api-ms-win-core-namedpipe-l1-1-0.dll',
   'BINARY'),
  ('api-ms-win-core-util-l1-1-0.dll',
   'C:\\Program Files\\Java\\jdk-1.8\\bin\\api-ms-win-core-util-l1-1-0.dll',
   'BINARY'),
  ('api-ms-win-core-file-l1-2-0.dll',
   'C:\\Program Files\\Java\\jdk-1.8\\bin\\api-ms-win-core-file-l1-2-0.dll',
   'BINARY'),
  ('api-ms-win-core-timezone-l1-1-0.dll',
   'C:\\Program Files\\Java\\jdk-1.8\\bin\\api-ms-win-core-timezone-l1-1-0.dll',
   'BINARY'),
  ('api-ms-win-core-console-l1-1-0.dll',
   'C:\\Program Files\\Java\\jdk-1.8\\bin\\api-ms-win-core-console-l1-1-0.dll',
   'BINARY'),
  ('api-ms-win-core-processthreads-l1-1-1.dll',
   'C:\\Program '
   'Files\\Java\\jdk-1.8\\bin\\api-ms-win-core-processthreads-l1-1-1.dll',
   'BINARY'),
  ('api-ms-win-core-file-l1-1-0.dll',
   'C:\\Program Files\\Java\\jdk-1.8\\bin\\api-ms-win-core-file-l1-1-0.dll',
   'BINARY'),
  ('api-ms-win-core-processenvironment-l1-1-0.dll',
   'C:\\Program '
   'Files\\Java\\jdk-1.8\\bin\\api-ms-win-core-processenvironment-l1-1-0.dll',
   'BINARY'),
  ('api-ms-win-core-rtlsupport-l1-1-0.dll',
   'C:\\Program '
   'Files\\Java\\jdk-1.8\\bin\\api-ms-win-core-rtlsupport-l1-1-0.dll',
   'BINARY'),
  ('api-ms-win-core-libraryloader-l1-1-0.dll',
   'C:\\Program '
   'Files\\Java\\jdk-1.8\\bin\\api-ms-win-core-libraryloader-l1-1-0.dll',
   'BINARY'),
  ('api-ms-win-core-datetime-l1-1-0.dll',
   'C:\\Program Files\\Java\\jdk-1.8\\bin\\api-ms-win-core-datetime-l1-1-0.dll',
   'BINARY'),
  ('base_library.zip',
   'E:\\_MASTER\\Projects\\py exe\\build\\DSAI_reExcel\\base_library.zip',
   'DATA')],
 'python311.dll',
 False,
 False,
 False,
 [],
 None,
 None,
 None)
